{
    "patrons":
    [
        {
            "name": "Blue Systems",
            "logo": "/images/logos/blue-systems.png",
            "description": "<p>Liberating Software. We work on getting KDE software ready for your devices.</p>",
            "url": "https://www.blue-systems.com/"
        },
        {
            "name": "Qt Group",
            "logo": "/images/logos/QtGroup.png",
            "description": "<p>Qt Group is a global software company trusted by industry leaders and over 1.5 million developers worldwide to create applications and smart devices that users love. They help their customers to increase productivity through the entire product development lifecycle - from UI design and software development to quality management and deployment.</p>",
            "url": "https://www.qt.io/qt-consulting/"
        },
        {
            "name": "Kubuntu Focus",
            "logo": "/images/logos/kfocus.png",
            "description": "<p>MindShare Inc. is headquartered in Castro Valley, California. The technical staff includes members with over 20 years' experience with Linux and Unix, and a MOTU Ubuntu developer.</p><p>Our mission is to provide the best Linux-native development environment for organizations, creators, developers, and ML scientists. We focus on 4 key areas:</p><ul><li>Thorough and automatic <a href='https://kfocus.org/wf/tools#hw-config'>hardware optimization</a> of GPUs, CPUs, sound, touchpads, keyboards, displays, and power management.</li><li>World-class usability with <a href='https://kfocus.org/wf/tools'>GUI tools</a> like FocusRx, Welcome Wizard, Hints Widget, Deep Learning Suite, and Curated Apps to make hard things easy..</li><li>The most reliable experience though <a href='https://kfocus.org/land/business'>validation and curation</a> of critical system components, including kernels, GPU drivers, and desktop libraries.</li><li>The most complete, <a href='https://kfocus.org/wf'>Linux-first support</a>, including a rich collection of authoritative guides, email support, and live sessions.</li></ul>If you require support, custom packaging or application development, please call 844-536-2871 or write TellMeMore@kfocus.org. We’d love to hear from you!",
            "url": "https://kfocus.org/"
        }
    ],
    "supporters":
    [
        {
            "name": "KDAB",
            "logo": "/images/supportingmembers/kdab.png",
            "description": "<p>KDAB is the world's leading software consultancy for architecture, development and design of Qt, C++ and OpenGL applications across desktop, embedded and mobile platforms. KDAB experts build run-times, mix native and web technologies, solve hardware stack performance issues and porting problems for hundreds of customers, many among the Fortune 500.</p> <p>KDAB’s founder, Matthias Kalle Dalheimer was one of KDE’s first contributors and was president of KDE e.V. from 2002 to 2005. KDAB continues to be a key supporter of the KDE project, as well as being a major independent contributor to Qt and the driving force behind Qt 3D.</p> <p>KDAB’s extensive experience in creating, debugging, profiling and porting complex applications, has led to the development of its acclaimed free tools, such as GammaRay, Heaptrack and Hotspot that help developers worldwide to deliver successful projects. KDAB is the market leader in training for Qt, OpenGL, modern C++ and much more.</p>",
            "url": "https://www.kdab.com/"
        },
        {
            "name": "enioka Haute Couture",
            "logo": "/images/supportingmembers/enioka.png",
            "description": "<p>Businesses of all kinds have become highly dependent on their IT systems. And yet, many of them have lost control of this essential part of their assets.</p> <p>enioka Haute Couture specializes in mastering complex software development, be it because of the domain, the organization or the timing of the project.</p> <p>We work in close collaboration with your own teams to build software tailored to your needs. And if we're developing it ourselves, we go the extra mile to make sure you will keep it under control. We will also help your teams adopt the right organization, technologies and tools. Finally, every time it is suitable, we can help you setup Free and Open Source Software projects or interact with existing ones.</p> <p>With enioka Haute Couture, you have a trusted provider who facilitates your development needs while keeping full control of your systems. No more vendor or service provider lock-in.</p>",
            "url": "https://hc.enioka.com/en/"
        },
        {
            "name": "basysKom GmbH",
            "logo": "/images/supportingmembers/basyskom.png",
            "description": "<p>The software experts at basysKom create innovative applications, comprehensive consulting, practice-oriented coaching, and qualified trainings. We are partner for the development of customer-specific, technical software applications and are known by customers and developers alike for our practiced values: expertise, trust, agility and open source mindset. Owing to our knowledge and extensive experience we believe in the merits of open source software.</p><p>basysKom, a company of the UX Gruppe, was originally founded as a solutions provider for Qt in 2004 by Prof. Dr.-Ing. Eva Brucherseifer, a veteran KDE community member and founder of the KDE-Women and KDE-Edu projects.</p><p>basysKom initiated and maintains the Qt module for OPC UA, an industry communications standard, as well as the Rive QtQuick plug-in, and is an active contributor to various open source projects, such as open62541.</p>",
            "url": "https://www.basyskom.com"
        }
    ],
    "other":
    [
        {
            "name": "Woboq GmbH",
            "logo": "/images/consultants/woboq.svg",
            "description": "<p>Woboq is a company offering services around Qt. Including bugfixes and feature within Qt or other applications.</p>",
            "url": "https://woboq.com/"
        },
        {
            "name": "vizZzion.com (Sebastian Kügler)",
            "logo": "/images/consultants/vizZzion.png",
            "description": "<p>I am an independent technical consultant specialized in software developement with Qt, KDE and Linux and embedded systems, available for hire to help developing and improving your products. I am proficient in programming languages such as C++, Python, JavaScript and a few others.</p><p>With more than 15 years of experience with Qt, Linux and working in agile software teams, I combine deep technical expertise with outstanding communication skills and a clear head and structured approach to solving technical problems.</p>",
            "url": "https://vizzzion.org/blog/consultancy/"
        },
        {
            "name": "Collabora",
            "logo": "/images/consultants/collabora.svg",
            "description": "<p>Collabora is a leading global consultancy specializing in delivering the benefits of Open Source software to the commercial world. For over 15 years, we've helped clients navigate the ever-evolving world of Open Source, enabling them to develop the best solutions – whether writing a line of code or shaping a longer-term strategic software development plan. By harnessing the potential of community-driven Open Source projects, and re-using existing components, we help our clients reduce time to market and focus on creating product differentiation.</p>",
            "url": "https://collabora.com"
        },
        {
            "name": "Codethink",
            "logo": "/images/consultants/codethink.svg",
            "description": "<p>For over a decade, we've been delivering critical, high-performance software projects for international companies in a range of industries including Automotive, Finance, Medical and IoT.</p><p>We are experts in Free and Open Source Software (FOSS). We participate upstream and are active contributors to a wide range of cutting edge FOSS projects, processes and cultures.</p><p>We help clients and partners take maximum advantage from the knowledge and technologies developed by the FOSS community. Even when source cannot be shared, our teams draw on and benefit from FOSS people, code, processes, insights and values.</p>",
            "url": "https://codethink.co.uk"
        }
    ]
}
